ds202_HW5
…
c <- b%>% filter(year == 2019)
dailysale <- c%>% group_by(day,month) %>% 
  summarise(sumBottleSold = sum(`Bottles Sold`), sumSale = sum(`Sale (Dollars)`),
                                sumVolumeSold = sum(`Volume Sold (Liters)`)) 
dailysale

## # A tibble: 157 x 5
## # Groups:   day [31]
##    day   month sumBottleSold  sumSale sumVolumeSold
##    <chr> <chr>         <dbl>    <dbl>         <dbl>
##  1 01    02             1225  19438.          1263.
##  2 01    03             1655  22531.          1557.
##  3 01    05             1715  31963.          2115.
##  4 01    08             3347  44361.          2728.
##  5 01    10              255   3526.           186 
##  6 01    11              623   6512.           652.
##  7 02    05             9468 132643.          8585.
##  8 02    07                1     18.8            1 
##  9 02    08              431   4046.           249.
## 10 02    10             4912  65284.          4288.
## #  with 147 more rows
…
